<?xml version="1.0" encoding="utf-8"?>
<!-- Generator: Adobe Illustrator 21.1.0, SVG Export Plug-In . SVG Version: 6.00 Build 0)  -->
<svg version="1.1" id="Layer_1" xmlns="http://www.w3.org/2000/svg" xmlns:xlink="http://www.w3.org/1999/xlink" x="0px" y="0px"
	 viewBox="0 0 2500 2500" style="enable-background:new 0 0 2500 2500;" xml:space="preserve">
<style type="text/css">
	.st0{fill:#FFFFFF;}
	.st1{fill:#F7931A;}
</style>
<title>Bitcoin Cash</title>
<desc>Created using Figma</desc>
<g id="Bitcoin_Cash">
	<g id="wordmark-bitcoincash-dark.min">
		<g id="Rectangle" transform="translate(-229 -486)">
			<path id="path0_fill" class="st0" d="M229,953.8h2500v1562.6H229V953.8z"/>
		</g>
		<g id="Vector" transform="translate(-229 -486)">
			<path id="path1_fill" class="st1" d="M229,953.8h714c-124.4,88-225,204.7-295.3,340.9c-70.2,136.2-106.6,286.8-106.6,439.9
				s36.4,304.6,106.6,440.8c70.2,136.2,170.9,253,295.3,340.9H229V953.8z M1478.6,953.8c-203.9,0-399.3,82.1-544,228.4
				c-143.8,146.4-225,345.2-225,552.5s81.2,406.1,225,552.5c143.8,146.4,340.1,228.4,544,228.4s399.3-82.1,544-228.4
				c143.8-146.4,225-345.2,225-552.5s-81.2-406.1-225-552.5S1682.5,953.8,1478.6,953.8L1478.6,953.8z M2729,953.8h-714
				c124.4,88,225,204.7,295.3,340.9c70.2,136.2,106.6,286.8,106.6,440.8c0,153.1-36.4,304.6-106.6,440.8s-170.9,253-295.3,340.9h714
				V953.8z"/>
		</g>
		<g id="Vector_1_" transform="translate(-218.105 -482.324)">
			<path id="path2_fill" class="st0" d="M1807.7,1502.4c-34.7-99-129.4-110.8-240.3-93.1l-34.7-140.4l-84.6,21.2l33.8,137.1
				c-22,5.9-44.8,11.8-66.8,17.8l-33.8-137.9l-84.6,21.2l34.7,140.4c-17.8,5.1-36.4,10.2-53.3,14.4v-0.8l-116.8,29.6l22.8,91.4
				c0,0,61.8-16.9,60.9-15.2c33.8-8.5,49.9,8.5,57.5,25.4l39.8,160.7c3.4-0.8,5.9-1.7,9.3-1.7l-9.3,2.5l55,225
				c0.8,11-0.8,30.5-24.5,36.4c1.7,0.8-61.8,15.2-61.8,15.2l8.5,106.6l110-27.9c20.3-5.1,40.6-10.2,60.1-14.4l34.7,142.1l84.6-21.2
				l-34.7-141.3c23.7-5.1,45.7-11,67.7-16.1l34.7,140.4l84.6-21.2l-34.7-142.1c139.6-44,230.1-105.8,209-244.5
				c-16.9-111.7-79.5-147.2-165-146.4C1813.7,1627.6,1833.1,1575.2,1807.7,1502.4L1807.7,1502.4z M1764.6,1836.6
				c26.2,106.6-156.5,139.6-213.2,154l-46.5-188.7C1562.4,1788.4,1737.5,1726.6,1764.6,1836.6z M1660.5,1581.1
				c23.7,96.4-128.6,123.5-176,135.4l-42.3-170.9C1489.6,1532.9,1635.1,1479.6,1660.5,1581.1z"/>
		</g>
	</g>
</g>
</svg>
